[
"I am enough.",
"My Soul is playful, wild, creative, imaginative, and timeless.",
"Vulnerability is strength. I will live and love with an open Heart.",
"I can always find truth, meaning, and grounding from my Inner-World.",
"I cannot love Others more than I love My-Self.",
"Love is an action, and the action of Loving is unconditional.",
"I will always share Love with My-Self.",
"I need and deserve respect.",
"I can always be a Warrior for My-Self, and I will have my voice.",
"No one can tell me who I am, but Me.",
"I will always give my Heart the space and time to feel sadness.",
"Being Human isn't painless.",
"Suffering is not sadness, and I cannot allow My-Self to suffer while I'm on a Journey.",
"Sadness is a gift, and a very natural part of being Human.",
"I have the strength to experience sadness as it comes.",
"Actions coming from a place of anger or deprivation are mindless and toxic.",
"I can be mindful of my reactive thoughts.",
"I will not react to the fear of outcomes.",
"I can sit with my fears without being overwhelmed by them.",
"I can be grounded in My-Self.",
"Guilt and shame are like poison, and I cannot carry guilt or shame in my Heart.",
"We all have human needs, and I can voice my needs without feeling guilt, shame, or fear.",
"When I am in pain, I can offer My-Self softness, compassion, and nurturance.",
"I'm wicked funny.",
"I don't need to be right, and I don't need anyone else to be wrong.",
"I will have my emotions.",
"Slowness is the true pace of learning.",
"I cannot rush My-Self or my growth.",
"From wherever I'm at in my life, I can learn.",
"I cannot judge the steps or stops of my path in life.",
"I am on a Journey.",
"Validation is for Egos, and I am not an Ego.",
"Pleasure seeking is a temporary escape, and I can be mindful of my desires.",
"Being on a Journey means that you'll be wrong sometimes.",
"I can be wrong, and I will learn from my mistakes.",
"I cannot isolate My-Self from Others when I need help.",
"I can reach out to Others for help.",
"I deserve to be Loved.",
"The words Love and Relationship do not mean the same thing.",
"Even when I am upset, angry, or experiencing the strength of my emotions, I can be present with Others and hear what they may have to share.",
"I can stay grounded, and I will be My-Self.",
"I cannot allow My-Self to be numb.",
"There are lessons to be learned in embracing pain as it comes.",
"I can always live, create, and dream with passion and energy.",
"I do not need approval to follow my Heart.",
"Returning to the present moment, I can have awareness of My-Self and Others.",
"To judge My-Self or Others is to live without Integrity.",
"I cannot dehumanize the World through judgment.",
"From my Inner-World, I have the strength, wisdom, and Integrity to discern the Truth.",
"When I project judgment onto the World or Others, I am blind to the Truth.",
"I will nurture the relationships in my life with compassion, conflict, and meaningful time spent together.",
"On my Journey I can reflect on what I learn, integrate new teachings, plant seeds in the Hearts of Others, and continue to grow.",
"When I feel lost, my Heart can be a compass to my Inner-World.",
"I can trust the direction in which I have been carried.",
"I will have awareness of my breathing.",
"The paralyzing limits of anxiety are an illusion.",
"Remember to breathe.",
"I am a part of the Universe, not the center of it.",
"I'm not here to fix people, and I can only offer my help.",
"To live meaningfully is to live an evolving, non-linear, passionate, timeless, imaginative, heroic, undefined existence, free of labels and judgments.",
"I can live a joyful, meaningful life.",
"My imagination is a gift, and I can share my gifts with courage.",
"Courage is a gift.",
"I will allow unconditional love for My-Self into my Heart without a fight. I can be Loved.",
"I am not my thoughts.",
"My Mind is my Mind, and I am Soulfully responsible for my thoughts and thinking.",
"When I need help or need to talk, I can ask for what I need.",
"I can be alone and joyful, and I don't need to feel shame or isolation in my Solitude.",
"My Heart needs to be open on this Journey.",
"It's never all awful, it's never all bad. Some days it's good to be sad, or be mad.",
"There is Magic in this World."
]
